              1        0.000006     9.87021e-17
              2        0.000009     1.04845e-16
              3        0.000007     1.04845e-16
              4        0.000007     1.04845e-16
              5        0.000007     1.04845e-16
              6        0.000008     1.04845e-16
              7        0.000008     1.04845e-16
              8        0.000007     1.04845e-16
              9        0.000008     1.04845e-16
             10        0.000009     1.04845e-16
             12        0.000007     1.04845e-16
