       1.192000        0.739800
       1.355104        0.543605
       1.452931        0.213906
       1.457778       -0.176621
       1.368152       -0.516579
       1.209820       -0.727031
       1.019178       -0.799081
       0.826262       -0.772357
       0.648446       -0.695803
       0.492276       -0.605951
       0.357590       -0.523769
       0.240867       -0.459119
       0.137213       -0.415736
       0.041314       -0.394631
      -0.052210       -0.395930
      -0.148733       -0.419631
      -0.253633       -0.465563
      -0.372203       -0.532517
      -0.509241       -0.616256
      -0.668006       -0.705908
      -0.848077       -0.778872
      -1.041864       -0.796758
      -1.230521       -0.710145
      -1.382734       -0.482901
      -1.462314       -0.131826
      -1.446010        0.257234
      -1.338842        0.573859
      -1.170558        0.753184
      -0.977313        0.799925
      -0.786594        0.758675
      -0.613149        0.676771
      -0.461744        0.587259
      -0.331265        0.508274
      -0.217773        0.447991
      -0.116229        0.409338
      -0.021290        0.393026
       0.072423        0.399117
       0.170286        0.427604
       0.277673        0.478197
       0.399821        0.549258
       0.541317        0.635490
       0.704856        0.723974
       0.888824        0.788932
       1.083543        0.788696
       1.267399        0.673853
       1.406993        0.416242
       1.467195        0.047901
       1.429985       -0.334336
       1.306714       -0.624572
       1.130191       -0.773124
