       1.144000        0.557617
       1.267656        0.422905
       1.346994        0.198938
       1.363146       -0.073077
       1.311917       -0.326981
       1.206195       -0.506353
       1.068868       -0.590473
       0.922768       -0.592304
       0.784562       -0.539664
       0.663730       -0.458908
       0.564286       -0.368196
       0.486996       -0.277463
       0.431104       -0.190765
       0.395428       -0.108616
       0.378968       -0.029639
       0.381202        0.048403
       0.402201        0.127956
       0.442621        0.211122
       0.503540        0.298934
       0.586109        0.390210
       0.690841        0.479718
       0.816374        0.555728
       0.957590        0.597943
       1.103386        0.578689
       1.235361        0.471903
       1.329899        0.271245
       1.365559        0.006876
       1.333200       -0.259203
       1.241141       -0.464068
       1.110447       -0.575619
       0.964844       -0.598682
       0.823080       -0.558827
       0.696607       -0.483942
       0.590788       -0.394763
       0.507121       -0.303408
       0.445152       -0.215371
       0.403743       -0.131987
       0.381798       -0.052298
       0.378640        0.025762
       0.394164        0.104636
       0.428865        0.186585
       0.483725        0.273048
       0.559928        0.363638
       0.658271        0.454527
       0.778101        0.536131
       0.915614        0.590733
       1.061653        0.592301
       1.199918        0.512781
       1.307787        0.337981
       1.362150        0.086679
