      -0.856000        0.572547
      -0.725178        0.503835
      -0.614159        0.416676
      -0.525173        0.325137
      -0.458094        0.236062
      -0.411863        0.151586
      -0.385332        0.071173
      -0.377701       -0.007060
      -0.388721       -0.085516
      -0.418748       -0.166553
      -0.468666       -0.251878
      -0.539650       -0.341664
      -0.632665       -0.433095
      -0.747535       -0.518203
      -0.881402       -0.581380
      -1.026598       -0.598340
      -1.168605       -0.540425
      -1.286002       -0.388256
      -1.354968       -0.151441
      -1.358693        0.122422
      -1.296206        0.366158
      -1.182937        0.528639
      -1.042459        0.596175
      -0.896774        0.585953
      -0.761202        0.526466
      -0.644070        0.442822
      -0.548647        0.351575
      -0.475314        0.261404
      -0.423174        0.175565
      -0.391043        0.094128
      -0.377992        0.015500
      -0.383603       -0.062637
      -0.408058       -0.142709
      -0.452103       -0.226685
      -0.516867       -0.315303
      -0.603448       -0.406801
      -0.712131       -0.494964
      -0.841031       -0.566620
      -0.984109       -0.599880
      -1.128973       -0.566404
      -1.255983       -0.442167
      -1.341213       -0.226556
      -1.364730        0.043263
      -1.320447        0.302334
      -1.219609        0.491496
      -1.084529        0.585767
      -0.938441        0.595261
      -0.798804        0.547131
      -0.675818        0.468382
      -0.573981        0.378138
